…
``` r
#library("devtools")
#install_github("kauedesousa/gosset", upgrade = "never")
library("gosset")
library("PlackettLuce")
library("qvcalc")
library("tidyverse")
library("cowplot")

data("breadwheat", package = "gosset")

print(breadwheat)
```

    ## # A tibble: 493 x 19
    ##    variety_a variety_b variety_c district village participant_name   age
    ##    <chr>     <chr>     <chr>     <chr>    <chr>   <chr>            <int>
    ##  1 CSW18     PBW502    HW2045    Vaishali Shembh~ Participant Nam~    63
    ##  2 WR544     HD2985    PBW550    Vaishali Shembh~ Participant Nam~    27
    ##  3 PBW343    HD2932    RAJ4120   Vaishali Patadh  Participant Nam~    29
    ##  4 HP1633    DBW17     CSW18     Vaishali Shembh~ Participant Nam~    51
    ##  5 CSW18     DBW17     HD2932    Vaishali Bhatha~ Participant Nam~    51
    ##  6 HP1633    HW2045    CSW18     Vaishali Shembh~ Participant Nam~    63
    ##  7 HW2045    HD2824    PBW550    Vaishali Bhatha~ Participant Nam~    36
    ##  8 DBW17     HI1563    RAJ4120   Vaishali Shembh~ Participant Nam~    62
    ##  9 HW2045    PBW502    HI1563    Vaishali Shembh~ Participant Nam~    45
    ## 10 HD2985    CSW18     PBW502    Vaishali Shembh~ Participant Nam~    42
    ## # ... with 483 more rows, and 12 more variables: gender <chr>,
    ## #   planting_date <date>, lon <dbl>, lat <dbl>, germination_best <chr>,
    ## #   germination_worst <chr>, grainquality_best <chr>,
    ## #   grainquality_worst <chr>, yield_best <chr>, yield_worst <chr>,
    ## #   overall_best <chr>, overall_worst <chr>
…
