…
Then get the data available in each project using the function `gosset::getDataCM`. Let's start with project "chocolate", which is project where each participant received four items to test. Then reported the performance of all of them by indicanting which one get the the Position 1, Position 2 and so on.

``` r
mydata <- getDataCM(key, project = "chocolate")

print(mydata)
```

    ## # A tibble: 186 x 4
    ##    id    moment       variable          value              
    ##    <chr> <fct>        <chr>             <chr>              
    ##  1 1     package      participant_name  Maria Johnsen      
    ##  2 1     package      item_A            Ritter Sport       
    ##  3 1     package      item_B            Garoto             
    ##  4 1     package      item_C            Ferrero            
    ##  5 1     package      item_D            Toblerone          
    ##  6 1     registration survey_deviceimei 358624090903126    
    ##  7 1     registration survey_start      2019-02-25 09:10:23
    ##  8 1     registration survey_end        2019-02-25 09:11:39
    ##  9 1     registration lon               11.180033988606207 
    ## 10 1     registration lat               60.81923244457451  
    ## # ... with 176 more rows
…
By disabling the argument `tidydata` you get the data with their original names from the ODK file. This is used internally to analyse the data in the [ClimMob](https://climmob.net/blog/) portal.

``` r
mydata <- getDataCM(key, "chocolate", tidynames = FALSE)

print(mydata)
```

    ## # A tibble: 186 x 4
    ##    id    moment       variable           value              
    ##    <chr> <fct>        <chr>              <chr>              
    ##  1 1     package      farmername         Maria Johnsen      
    ##  2 1     package      item_A             Ritter Sport       
    ##  3 1     package      item_B             Garoto             
    ##  4 1     package      item_C             Ferrero            
    ##  5 1     package      item_D             Toblerone          
    ##  6 1     registration REG_clm_deviceimei 358624090903126    
    ##  7 1     registration REG_clm_start      2019-02-25 09:10:23
    ##  8 1     registration REG_clm_end        2019-02-25 09:11:39
    ##  9 1     registration REG_lon            11.180033988606207 
    ## 10 1     registration REG_lat            60.81923244457451  
    ## # ... with 176 more rows

The project "colours" is a project in the standar *tricot* method, where each participant receives three items and report which one had the *best* and *worst* performance.

``` r
mydata <- getDataCM(key, "colours")

print(mydata)
```

    ## # A tibble: 260 x 4
    ##    id    moment       variable          value              
    ##    <chr> <fct>        <chr>             <chr>              
    ##  1 1     package      participant_name  F1                 
    ##  2 1     package      item_A            Yellow             
    ##  3 1     package      item_B            Black              
    ##  4 1     package      item_C            Red                
    ##  5 1     registration survey_deviceimei 358624090903126    
    ##  6 1     registration survey_start      2019-02-12 13:15:33
    ##  7 1     registration survey_end        2019-02-12 13:15:59
    ##  8 1     registration lon               11.179963043445964 
    ##  9 1     registration lat               60.81873393078436  
    ## 10 1     assessment1  survey_deviceimei 358624090903126    
    ## # ... with 250 more rows
…
